{
    "images": [
        {
            "mime": "image/webp",
            "size_bytes": 93762,
            "width": 959,
            "height": 1280,
            "created_at": "2023-02-26T13:49:01.000000Z",
            "updated_at": "2023-02-26T16:49:01.000000Z",
            "deleted_at": null,
            "is_ai_generated": false,
            "encoded_id": "QdFSvy",
            "original_filename": "RDT_20230226_2213166750298650415633308.webp",
            "original_url": "https://simp6.cuckcapital.cr/images/RDT_20230226_2213166750298650415633308.webp",
            "thumb_url": "https://simp6.cuckcapital.cr/images/RDT_20230226_2213166750298650415633308.th.webp",
            "medium_url": "https://simp6.cuckcapital.cr/images/RDT_20230226_2213166750298650415633308.md.webp"
        },
        {
            "mime": "image/webp",
            "size_bytes": 163762,
            "width": 959,
            "height": 1280,
            "created_at": "2023-02-26T13:48:49.000000Z",
            "updated_at": "2023-02-26T16:48:49.000000Z",
            "deleted_at": null,
            "is_ai_generated": false,
            "encoded_id": "QdF4dn",
            "original_filename": "RDT_20230226_2213121125728335181724163.webp",
            "original_url": "https://simp6.cuckcapital.cr/images/RDT_20230226_2213121125728335181724163.webp",
            "thumb_url": "https://simp6.cuckcapital.cr/images/RDT_20230226_2213121125728335181724163.th.webp",
            "medium_url": "https://simp6.cuckcapital.cr/images/RDT_20230226_2213121125728335181724163.md.webp"
        },
        {
            "mime": "image/webp",
            "size_bytes": 883750,
            "width": 2316,
            "height": 3088,
            "created_at": "2023-02-22T15:33:40.000000Z",
            "updated_at": "2023-02-22T18:33:40.000000Z",
            "deleted_at": null,
            "is_ai_generated": false,
            "encoded_id": "5JsTIi",
            "original_filename": "RDT_20230223_0000026314164263922154876.webp",
            "original_url": "https://simp6.cuckcapital.cr/images/RDT_20230223_0000026314164263922154876.webp",
            "thumb_url": "https://simp6.cuckcapital.cr/images/RDT_20230223_0000026314164263922154876.th.webp",
            "medium_url": "https://simp6.cuckcapital.cr/images/RDT_20230223_0000026314164263922154876.md.webp"
        },
        {
            "mime": "image/webp",
            "size_bytes": 917946,
            "width": 2316,
            "height": 3088,
            "created_at": "2023-02-22T15:33:38.000000Z",
            "updated_at": "2023-02-22T18:33:38.000000Z",
            "deleted_at": null,
            "is_ai_generated": false,
            "encoded_id": "5JsHX5",
            "original_filename": "RDT_20230222_2359542218653963070595916.webp",
            "original_url": "https://simp6.cuckcapital.cr/images/RDT_20230222_2359542218653963070595916.webp",
            "thumb_url": "https://simp6.cuckcapital.cr/images/RDT_20230222_2359542218653963070595916.th.webp",
            "medium_url": "https://simp6.cuckcapital.cr/images/RDT_20230222_2359542218653963070595916.md.webp"
        },
        {
            "mime": "image/webp",
            "size_bytes": 106892,
            "width": 959,
            "height": 1280,
            "created_at": "2023-02-22T15:33:16.000000Z",
            "updated_at": "2023-02-22T18:33:16.000000Z",
            "deleted_at": null,
            "is_ai_generated": false,
            "encoded_id": "5JcchA",
            "original_filename": "RDT_20230222_2359314803028389336753221.webp",
            "original_url": "https://simp6.cuckcapital.cr/images/RDT_20230222_2359314803028389336753221.webp",
            "thumb_url": "https://simp6.cuckcapital.cr/images/RDT_20230222_2359314803028389336753221.th.webp",
            "medium_url": "https://simp6.cuckcapital.cr/images/RDT_20230222_2359314803028389336753221.md.webp"
        },
        {
            "mime": "image/webp",
            "size_bytes": 99122,
            "width": 959,
            "height": 1280,
            "created_at": "2023-02-22T15:33:11.000000Z",
            "updated_at": "2023-02-22T18:33:11.000000Z",
            "deleted_at": null,
            "is_ai_generated": false,
            "encoded_id": "5JcSPo",
            "original_filename": "RDT_20230222_2358569013574042319092049.webp",
            "original_url": "https://simp6.cuckcapital.cr/images/RDT_20230222_2358569013574042319092049.webp",
            "thumb_url": "https://simp6.cuckcapital.cr/images/RDT_20230222_2358569013574042319092049.th.webp",
            "medium_url": "https://simp6.cuckcapital.cr/images/RDT_20230222_2358569013574042319092049.md.webp"
        },
        {
            "mime": "image/webp",
            "size_bytes": 105760,
            "width": 959,
            "height": 1280,
            "created_at": "2023-02-22T15:33:11.000000Z",
            "updated_at": "2023-02-22T18:33:11.000000Z",
            "deleted_at": null,
            "is_ai_generated": false,
            "encoded_id": "5JcUzP",
            "original_filename": "RDT_20230222_2358593691683778565450924.webp",
            "original_url": "https://simp6.cuckcapital.cr/images/RDT_20230222_2358593691683778565450924.webp",
            "thumb_url": "https://simp6.cuckcapital.cr/images/RDT_20230222_2358593691683778565450924.th.webp",
            "medium_url": "https://simp6.cuckcapital.cr/images/RDT_20230222_2358593691683778565450924.md.webp"
        },
        {
            "mime": "image/webp",
            "size_bytes": 133994,
            "width": 959,
            "height": 1280,
            "created_at": "2023-02-22T15:33:07.000000Z",
            "updated_at": "2023-02-22T18:33:07.000000Z",
            "deleted_at": null,
            "is_ai_generated": false,
            "encoded_id": "5Jc1vy",
            "original_filename": "RDT_20230222_2359241679410020448891301.webp",
            "original_url": "https://simp6.cuckcapital.cr/images/RDT_20230222_2359241679410020448891301.webp",
            "thumb_url": "https://simp6.cuckcapital.cr/images/RDT_20230222_2359241679410020448891301.th.webp",
            "medium_url": "https://simp6.cuckcapital.cr/images/RDT_20230222_2359241679410020448891301.md.webp"
        },
        {
            "mime": "image/webp",
            "size_bytes": 838538,
            "width": 2937,
            "height": 3917,
            "created_at": "2023-02-22T15:33:07.000000Z",
            "updated_at": "2023-02-22T18:33:07.000000Z",
            "deleted_at": null,
            "is_ai_generated": false,
            "encoded_id": "5JcOh9",
            "original_filename": "RDT_20230222_2359034830353001920738203.webp",
            "original_url": "https://simp6.cuckcapital.cr/images/RDT_20230222_2359034830353001920738203.webp",
            "thumb_url": "https://simp6.cuckcapital.cr/images/RDT_20230222_2359034830353001920738203.th.webp",
            "medium_url": "https://simp6.cuckcapital.cr/images/RDT_20230222_2359034830353001920738203.md.webp"
        },
        {
            "mime": "image/webp",
            "size_bytes": 109134,
            "width": 959,
            "height": 1280,
            "created_at": "2023-02-22T15:33:00.000000Z",
            "updated_at": "2023-02-22T18:33:00.000000Z",
            "deleted_at": null,
            "is_ai_generated": false,
            "encoded_id": "5Jcg0f",
            "original_filename": "RDT_20230222_2359102607530260665300504.webp",
            "original_url": "https://simp6.cuckcapital.cr/images/RDT_20230222_2359102607530260665300504.webp",
            "thumb_url": "https://simp6.cuckcapital.cr/images/RDT_20230222_2359102607530260665300504.th.webp",
            "medium_url": "https://simp6.cuckcapital.cr/images/RDT_20230222_2359102607530260665300504.md.webp"
        },
        {
            "mime": "image/webp",
            "size_bytes": 164304,
            "width": 959,
            "height": 1280,
            "created_at": "2023-02-22T15:32:53.000000Z",
            "updated_at": "2023-02-22T18:32:53.000000Z",
            "deleted_at": null,
            "is_ai_generated": false,
            "encoded_id": "5JcmRD",
            "original_filename": "RDT_20230222_2358517298999291083920517.webp",
            "original_url": "https://simp6.cuckcapital.cr/images/RDT_20230222_2358517298999291083920517.webp",
            "thumb_url": "https://simp6.cuckcapital.cr/images/RDT_20230222_2358517298999291083920517.th.webp",
            "medium_url": "https://simp6.cuckcapital.cr/images/RDT_20230222_2358517298999291083920517.md.webp"
        },
        {
            "mime": "image/jpeg",
            "size_bytes": 630681,
            "width": 2692,
            "height": 4177,
            "created_at": "2023-02-20T04:06:16.000000Z",
            "updated_at": "2023-02-20T07:06:16.000000Z",
            "deleted_at": null,
            "is_ai_generated": false,
            "encoded_id": "5SOFwn",
            "original_filename": "fansly-4rbqxplouhd.jpg",
            "original_url": "https://simp6.cuckcapital.cr/images/fansly-4rbqxplouhd.jpg",
            "thumb_url": "https://simp6.cuckcapital.cr/images/fansly-4rbqxplouhd.th.jpg",
            "medium_url": "https://simp6.cuckcapital.cr/images/fansly-4rbqxplouhd.md.jpg"
        },
        {
            "mime": "image/jpeg",
            "size_bytes": 654298,
            "width": 2690,
            "height": 4190,
            "created_at": "2023-02-20T04:06:13.000000Z",
            "updated_at": "2023-02-20T07:06:13.000000Z",
            "deleted_at": null,
            "is_ai_generated": false,
            "encoded_id": "5SOEXp",
            "original_filename": "fansly-t1y7vx9ajwr.jpg",
            "original_url": "https://simp6.cuckcapital.cr/images/fansly-t1y7vx9ajwr.jpg",
            "thumb_url": "https://simp6.cuckcapital.cr/images/fansly-t1y7vx9ajwr.th.jpg",
            "medium_url": "https://simp6.cuckcapital.cr/images/fansly-t1y7vx9ajwr.md.jpg"
        },
        {
            "mime": "image/webp",
            "size_bytes": 927856,
            "width": 2316,
            "height": 3088,
            "created_at": "2023-02-20T04:06:00.000000Z",
            "updated_at": "2023-02-20T07:06:00.000000Z",
            "deleted_at": null,
            "is_ai_generated": false,
            "encoded_id": "5SOCNE",
            "original_filename": "RDT_20230219_1910563517677294157705253.webp",
            "original_url": "https://simp6.cuckcapital.cr/images/RDT_20230219_1910563517677294157705253.webp",
            "thumb_url": "https://simp6.cuckcapital.cr/images/RDT_20230219_1910563517677294157705253.th.webp",
            "medium_url": "https://simp6.cuckcapital.cr/images/RDT_20230219_1910563517677294157705253.md.webp"
        },
        {
            "mime": "image/webp",
            "size_bytes": 647584,
            "width": 2316,
            "height": 3088,
            "created_at": "2023-02-20T04:05:58.000000Z",
            "updated_at": "2023-02-20T07:05:58.000000Z",
            "deleted_at": null,
            "is_ai_generated": false,
            "encoded_id": "5SOvyd",
            "original_filename": "RDT_20230219_1910131149968270173049556.webp",
            "original_url": "https://simp6.cuckcapital.cr/images/RDT_20230219_1910131149968270173049556.webp",
            "thumb_url": "https://simp6.cuckcapital.cr/images/RDT_20230219_1910131149968270173049556.th.webp",
            "medium_url": "https://simp6.cuckcapital.cr/images/RDT_20230219_1910131149968270173049556.md.webp"
        },
        {
            "mime": "image/jpeg",
            "size_bytes": 710932,
            "width": 2589,
            "height": 3882,
            "created_at": "2023-02-15T15:31:42.000000Z",
            "updated_at": "2023-02-15T18:31:42.000000Z",
            "deleted_at": null,
            "is_ai_generated": false,
            "encoded_id": "57K9S6",
            "original_filename": "fansly-ewtuv70yu47.jpg",
            "original_url": "https://simp6.cuckcapital.cr/images/fansly-ewtuv70yu47.jpg",
            "thumb_url": "https://simp6.cuckcapital.cr/images/fansly-ewtuv70yu47.th.jpg",
            "medium_url": "https://simp6.cuckcapital.cr/images/fansly-ewtuv70yu47.md.jpg"
        },
        {
            "mime": "image/jpeg",
            "size_bytes": 641542,
            "width": 2476,
            "height": 3714,
            "created_at": "2023-02-15T15:31:41.000000Z",
            "updated_at": "2023-02-15T18:31:41.000000Z",
            "deleted_at": null,
            "is_ai_generated": false,
            "encoded_id": "57K8T1",
            "original_filename": "fansly-df9n6c3gr2o.jpg",
            "original_url": "https://simp6.cuckcapital.cr/images/fansly-df9n6c3gr2o.jpg",
            "thumb_url": "https://simp6.cuckcapital.cr/images/fansly-df9n6c3gr2o.th.jpg",
            "medium_url": "https://simp6.cuckcapital.cr/images/fansly-df9n6c3gr2o.md.jpg"
        },
        {
            "mime": "image/webp",
            "size_bytes": 589970,
            "width": 2114,
            "height": 3172,
            "created_at": "2023-02-15T15:26:42.000000Z",
            "updated_at": "2023-02-15T18:26:42.000000Z",
            "deleted_at": null,
            "is_ai_generated": false,
            "encoded_id": "570ft7",
            "original_filename": "RDT_20230215_2204557621149205274631759.webp",
            "original_url": "https://simp6.cuckcapital.cr/images/RDT_20230215_2204557621149205274631759.webp",
            "thumb_url": "https://simp6.cuckcapital.cr/images/RDT_20230215_2204557621149205274631759.th.webp",
            "medium_url": "https://simp6.cuckcapital.cr/images/RDT_20230215_2204557621149205274631759.md.webp"
        },
        {
            "mime": "image/webp",
            "size_bytes": 364486,
            "width": 2309,
            "height": 3080,
            "created_at": "2023-02-15T15:26:39.000000Z",
            "updated_at": "2023-02-15T18:26:39.000000Z",
            "deleted_at": null,
            "is_ai_generated": false,
            "encoded_id": "570ABg",
            "original_filename": "RDT_20230215_2206022717215702329918019.webp",
            "original_url": "https://simp6.cuckcapital.cr/images/RDT_20230215_2206022717215702329918019.webp",
            "thumb_url": "https://simp6.cuckcapital.cr/images/RDT_20230215_2206022717215702329918019.th.webp",
            "medium_url": "https://simp6.cuckcapital.cr/images/RDT_20230215_2206022717215702329918019.md.webp"
        },
        {
            "mime": "image/webp",
            "size_bytes": 837934,
            "width": 2316,
            "height": 3088,
            "created_at": "2023-02-11T07:02:47.000000Z",
            "updated_at": "2023-02-11T10:02:47.000000Z",
            "deleted_at": null,
            "is_ai_generated": false,
            "encoded_id": "296mii",
            "original_filename": "RDT_20230211_150544917196814290774216.webp",
            "original_url": "https://simp6.cuckcapital.cr/images/RDT_20230211_150544917196814290774216.webp",
            "thumb_url": "https://simp6.cuckcapital.cr/images/RDT_20230211_150544917196814290774216.th.webp",
            "medium_url": "https://simp6.cuckcapital.cr/images/RDT_20230211_150544917196814290774216.md.webp"
        },
        {
            "mime": "image/webp",
            "size_bytes": 776272,
            "width": 2316,
            "height": 3088,
            "created_at": "2023-02-11T07:02:43.000000Z",
            "updated_at": "2023-02-11T10:02:43.000000Z",
            "deleted_at": null,
            "is_ai_generated": false,
            "encoded_id": "296iJP",
            "original_filename": "RDT_20230211_1505362988936950613421481.webp",
            "original_url": "https://simp6.cuckcapital.cr/images/RDT_20230211_1505362988936950613421481.webp",
            "thumb_url": "https://simp6.cuckcapital.cr/images/RDT_20230211_1505362988936950613421481.th.webp",
            "medium_url": "https://simp6.cuckcapital.cr/images/RDT_20230211_1505362988936950613421481.md.webp"
        },
        {
            "mime": "image/webp",
            "size_bytes": 927856,
            "width": 2316,
            "height": 3088,
            "created_at": "2023-02-11T07:02:35.000000Z",
            "updated_at": "2023-02-11T10:02:35.000000Z",
            "deleted_at": null,
            "is_ai_generated": false,
            "encoded_id": "296Zwo",
            "original_filename": "RDT_20230211_1505315000203003706317116.webp",
            "original_url": "https://simp6.cuckcapital.cr/images/RDT_20230211_1505315000203003706317116.webp",
            "thumb_url": "https://simp6.cuckcapital.cr/images/RDT_20230211_1505315000203003706317116.th.webp",
            "medium_url": "https://simp6.cuckcapital.cr/images/RDT_20230211_1505315000203003706317116.md.webp"
        },
        {
            "mime": "image/webp",
            "size_bytes": 562946,
            "width": 2316,
            "height": 3088,
            "created_at": "2023-02-11T07:02:31.000000Z",
            "updated_at": "2023-02-11T10:02:31.000000Z",
            "deleted_at": null,
            "is_ai_generated": false,
            "encoded_id": "296LN5",
            "original_filename": "RDT_20230211_1505494471980566320023222.webp",
            "original_url": "https://simp6.cuckcapital.cr/images/RDT_20230211_1505494471980566320023222.webp",
            "thumb_url": "https://simp6.cuckcapital.cr/images/RDT_20230211_1505494471980566320023222.th.webp",
            "medium_url": "https://simp6.cuckcapital.cr/images/RDT_20230211_1505494471980566320023222.md.webp"
        },
        {
            "mime": "image/webp",
            "size_bytes": 560476,
            "width": 2316,
            "height": 3088,
            "created_at": "2023-02-11T07:02:14.000000Z",
            "updated_at": "2023-02-11T10:02:14.000000Z",
            "deleted_at": null,
            "is_ai_generated": false,
            "encoded_id": "296En9",
            "original_filename": "RDT_20230211_150558975699407660324009.webp",
            "original_url": "https://simp6.cuckcapital.cr/images/RDT_20230211_150558975699407660324009.webp",
            "thumb_url": "https://simp6.cuckcapital.cr/images/RDT_20230211_150558975699407660324009.th.webp",
            "medium_url": "https://simp6.cuckcapital.cr/images/RDT_20230211_150558975699407660324009.md.webp"
        }
    ],
    "pagination": {
        "current_page": 2,
        "last_page": 40,
        "per_page": 24,
        "total": 947
    }
}